module livereload

go 1.16

require (
	github.com/0xAX/notificator v0.0.0-20210731104411-c42e3d4a43ee // indirect
	github.com/codegangsta/envy v0.0.0-20141216192214-4b78388c8ce4 // indirect
	github.com/codegangsta/gin v0.0.0-20211113050330-71f90109db02 // indirect
	github.com/mattn/go-shellwords v1.0.12 // indirect
	github.com/urfave/cli v1.22.5 // indirect
)
