module golangdojo.com/golangdojo/youtube/informative/7dealybeginnergodevelopermistakes/prep

go 1.18

require (
	github.com/google/uuid v1.3.0
	github.com/stretchr/testify v1.8.1
)

require (
	github.com/davecgh/go-spew v1.1.1 // indirect
	github.com/pmezard/go-difflib v1.0.0 // indirect
	gopkg.in/yaml.v3 v3.0.1 // indirect
)
